{
    "family": "hello-world",
    "containerDefinitions": [
        {
            "name": "hello-world",
            "image": "429492368957.dkr.ecr.us-west-2.amazonaws.com/hello-world",
            "cpu": 10,
            "memory": 500,
            "portMappings": [
                {
                    "containerPort": 80,
                    "hostPort": 80
                }
            ],
            "entryPoint": [
                "/usr/sbin/apache2",
                "-D",
                "FOREGROUND"
            ],
            "essential": true
        }
    ]
}
